<svg width="12" height="12" viewBox="0 0 12 12" xmlns="http://www.w3.org/2000/svg">
    <path d="M18.1505484,8 C23.7508279,8 28.3010969,12.4936295 28.3010969,18.1325461 
        C28.3010969,20.4416426 27.5380998,22.5734468 26.2524471,24.2859641 L30.6921595,28.736695 
        C31.0814773,29.1270112 31.0814773,29.7587804 30.6921595,30.1490965 L30.152537,30.6901027 
        C29.792515,31.051048 29.2253199,31.0795039 28.8326384,30.7749816 L28.7365137,30.6901027 
        L24.3101527,26.2533227 C22.6012211,27.5702249 20.4655999,28.3531562 18.1505484,28.3531562 
        C12.5501797,28.3531562 8,23.8595721 8,18.2206556 C8,12.6756763 12.3997278,8.1530168 
        17.8713768,8.00380176 L18.1505484,8 Z M18.1505484,10.3484411 C13.8355311,10.3484411 
        10.3424343,13.8505262 10.3424343,18.1765781 C10.3424343,22.5027363 13.8355311,26.0047151 
        18.1506009,26.0047151 C22.4655658,26.0047151 25.9586626,22.5026832 25.9586626,18.1765781 
        C25.9586626,13.9336673 22.5986239,10.4834394 18.3986103,10.3523074 L18.1505484,10.3484411 Z" 
        transform="translate(-8 -8)">
    </path>
</svg>