<svg xmlns="http://www.w3.org/2000/svg" width="12" height="12" viewBox="0 0 12 12">
    <path d="M.21,9l.93,1a.7.7,0,0,0,1,0h0L6,6.05,9.85,10a.7.7,0,0,0,1,0h0l.93-1a.72.72,0,0,0,0-1L6.51,2.61a.72.72,0,0,0-1,0L.21,8a.72.72,0,0,0,0,1" 
    transform="translate(0 -2.4)" fill-rule="evenodd"/>
</svg>